Visualising metagenome differences
…
amph_pos_tax_cat |> separate(Species, into = c('Species', 'Species_score'), sep =':') |> filter(!is.na(Species)) |>  group_by(sample, Species) |> 
  count(Species)

# A tibble: 68 × 3
# Groups:   sample, Species [68]
   sample Species                                n
   <chr>  <chr>                              <int>
 1 AR1    Acidihalobacter ferrooxydans           1
 2 AR1    Deltaproteobacteria bacterium          1
 3 AR1    Desulfobacterales bacterium            1
 4 AR1    Gammaproteobacteria bacterium          1
 5 AR1    Solirubrobacterales bacterium 70-9     1
 6 AR1    Spirochaetaceae bacterium 4572_59      1
 7 AR2    Acidihalobacter ferrooxydans           1
 8 AR2    Desulfobacterales bacterium            1
 9 AR2    Flammeovirgaceae bacterium             1
10 AR2    Gammaproteobacteria bacterium          2
# ℹ 58 more rows
…
genessplit <- genessplit |> mutate(sample = str_replace(sample, '_L2', '')) |> 
  left_join(metadata, by = c('sample'='Sample')) |> 
  filter(Sample_species %in% c('Amphibolis antarctica', 'Posidonia australis'))

count_diffs <- genessplit |> 
  group_by(Sample_species, gene) |> 
  count(gene) |> 
  pivot_wider(names_from = Sample_species, values_from = n) |> 
  mutate(difference = `Amphibolis antarctica` - `Posidonia australis`) |> 
  arrange(desc(difference))

count_diffs |> filter(`Posidonia australis` <100)

# A tibble: 5,172 × 4
# Groups:   gene [5,172]
   gene  `Amphibolis antarctica` `Posidonia australis` difference
   <chr>                   <int>                 <int>      <int>
 1 betI                      408                    80        328
 2 korA                      396                    76        320
 3 malT                      374                    63        311
 4 htpG                      392                    92        300
 5 mftC                      382                    95        287
 6 recD2                     362                    78        284
 7 zwf                       367                    84        283
 8 queG                      369                    91        278
 9 mglA                      373                    97        276
10 gdhA                      359                    84        275
# ℹ 5,162 more rows
…
What are those acdS-containing MAGs?

genessplit |> filter(gene == 'acdS') |> left_join(amph_pos_tax, by=c('sample', 'MAG'), multiple = 'any')

# A tibble: 32 × 41
   sample MAG   locus_tag ftype length_bp gene  gene_copy_number EC_number COG  
   <chr>  <chr> <chr>     <chr> <chr>     <chr> <chr>            <chr>     <chr>
 1 AR1    20    DKHMKEDN… CDS   1014      acdS  <NA>             3.5.99.7  <NA> 
 2 AR1    47    BGAOAMKE… CDS   1017      acdS  <NA>             3.5.99.7  <NA> 
 3 AR1    63    NHMBFEEI… CDS   1014      acdS  <NA>             3.5.99.7  <NA> 
 4 AR2    50    BOJIEKPI… CDS   1017      acdS  <NA>             3.5.99.7  <NA> 
 5 AR3    14    AIHODAJD… CDS   1014      acdS  <NA>             3.5.99.7  <NA> 
 6 AR3    27    OKIFEOJJ… CDS   1014      acdS  <NA>             3.5.99.7  <NA> 
 7 AR3    40    FMKMBAOD… CDS   1206      acdS  <NA>             3.5.99.7  <NA> 
 8 AR3    73    KKDHNOJN… CDS   1020      acdS  <NA>             3.5.99.7  <NA> 
 9 AR3    81    MCEFDNIP… CDS   450       acdS  <NA>             3.5.99.7  <NA> 
10 AR4    58    DIBNLNHP… CDS   1017      acdS  <NA>             3.5.99.7  <NA> 
# ℹ 22 more rows
# ℹ 32 more variables: product <chr>, Sample_replicate.x <dbl>,
#   Sample_species.x <chr>, Tissue.x <chr>, domain <chr>, phylum <chr>,
#   class <chr>, order <chr>, family <chr>, genus <chr>, species <chr>,
#   fastani_reference <chr>, fastani_reference_radius <chr>,
#   fastani_taxonomy <chr>, fastani_ani <chr>, fastani_af <chr>,
#   closest_placement_reference <chr>, closest_placement_radius <chr>, …
…
