Genomic comparison
…
reps <- readxl::read_xlsx('./data/Repeat_coding.xlsx')

reps <- reps %>% dplyr::filter(Class != 'Total')
reps$Class <- factor(reps$Class, levels = c('LINEs', 'LTRs', 'DNA', 'Unclassified', 'Total CDS', 'Non-repetitive'))
reps

# A tibble: 24 × 4
   Class          Assembly             BP Percent
   <fct>          <chr>             <dbl>   <dbl>
 1 LINEs          A. antarctica    805898   0.329
 2 LTRs           A. antarctica  45776664  18.7  
 3 DNA            A. antarctica  37822890  15.5  
 4 Unclassified   A. antarctica   1546483   0.632
 5 Total CDS      A. antarctica  29544393  12.1  
 6 Non-repetitive A. antarctica 129181002  52.8  
 7 LINEs          P. australis   38319733   3.15 
 8 LTRs           P. australis  611240734  50.3  
 9 DNA            P. australis  100034681   8.23 
10 Unclassified   P. australis   37142931   3.06 
# ℹ 14 more rows
…
